{
    "file": "trigger_emtopo.json",
    "variables": {
        "jet" : {
            "halves" : [
                "dipz20230223_z",
                "dipz20230223_negLogSigma2"
            ]
        }
    }
}

